Nama: qila, Kamera: Sony A7 IV, Durasi: 2 Hari, Harga: Rp1.400.000
Nama: Ivan Darmawan, Kamera: Nikon D850, Durasi: 3 Hari, Harga: Rp1.350.000
Nama: van, Kamera: Nikon D850, Durasi: 3 Hari, Harga: Rp1.350.000
